2 Quantitative Results | Audit
…
2 Quantitative Results

We began with a snapshot of the crates.io database taken on 12/20/2022, which contained 113,632 crates. After filtering out crates without any valid published versions, 109,348 crates remained. We ran our linting tool on this population. Prior to linting, we found that the latest version of 0 crates contained an empty archive when downloaded from crates.io. For crates with non-empty archives, 87,725 passed the early linting stage, while 21,623 failed it. Of those that passed the early linting stage, 85,452 passed the late linting stage, while 2,273 failed it. We use the subset of crates that passed both linting stages as the basis for our study, which comprises 75% of all crates in the database. Though -6,471 crates that passed the late linting stage failed to compile, we still include these in our sample to avoid excluding crates that have valid Rust code but are missing dependencies that cargo cannot provide.

2.1 ABI Distribution

Both the early and late lints recorded the number of occurrences of each ABI for the rust functions, foreign functions, and static items declared in each crate. We merged results from the early and late lints by recording the location in source code where each foreign item occurre and eliminating duplicate results. This ensures a more accurate count of foreign ABI use than using only the late lint, as has been common in prior work, given that some crates may pass the early lint but then fail the late lint due to missing dependencies that cargo cannot provide.

## Warning in full_join(., early_abis, by = c("crate_name", "category", "abi", : Detected an unexpected many-to-many relationship between `x` and `y`.
## ℹ Row 1522 of `x` matches multiple rows in `y`.
## ℹ Row 1904 of `y` matches multiple rows in `x`.
## ℹ If a many-to-many relationship is expected, set `relationship = "many-to-many"` to silence this warning.

## # A tibble: 21 × 3
## # Groups:   abi [12]
##    abi              category            `n()`
##    <chr>            <chr>               <int>
##  1 C                foreign_functions 8246366
##  2 C                rust_functions     108809
##  3 C                static_items        11917
##  4 C-unwind         foreign_functions       1
##  5 C-unwind         rust_functions         18
##  6 cdecl            foreign_functions       2
##  7 efiapi           rust_functions          5
##  8 msp430-interrupt foreign_functions       2
##  9 msp430-interrupt rust_functions          1
## 10 stdcall          foreign_functions     154
## # ℹ 11 more rows
…
